<?xml version="1.0" encoding="UTF-8"?>
<svg width="180px" height="40px" viewBox="0 0 180 40" version="1.1" xmlns="http://www.w3.org/2000/svg" xmlns:xlink="http://www.w3.org/1999/xlink">
    <g id="Page-1" stroke="none" stroke-width="1" fill="none" fill-rule="evenodd">
        <g id="Homepage-1440px" transform="translate(-120.000000, -16.000000)" fill-rule="nonzero">
            <g id="Header">
                <g id="Logo" transform="translate(120.000000, 16.000000)">
                    <path d="M35.2055455,23.8696364 C36.6538113,19.4252243 36.2710483,14.5868764 34.1419738,10.4254687 C32.0128993,6.26406094 28.3130996,3.12278745 23.8614545,1.69690909 L18.4107273,18.4180909 L35.2055455,23.8696364 Z" id="Path_1" fill="#88C982"></path>
                    <path d="M1.69036364,12.9665455 L18.4115455,18.4172727 L23.8630909,1.69690909 C19.4285144,0.242480932 14.5973375,0.613562192 10.4368976,2.728171 C6.27645773,4.84277981 3.12917303,8.52687679 1.69036364,12.9665455" id="Path_2" fill="#2E8F44"></path>
                    <path d="M12.96,35.2129091 C22.2137376,38.224724 32.1604983,33.1853099 35.2055455,23.9424545 L35.2055455,23.8688182 L18.4843636,18.4180909 L12.96,35.2129091 Z" id="Path_3" fill="#0096AD"></path>
                    <path d="M1.69036364,12.9665455 C-1.32152232,22.2200457 3.71747222,32.1667004 12.96,35.2120909 L18.4107273,18.4172727 L1.69036364,12.9665455 Z" id="Path_4" fill="#085B71"></path>
                    <path d="M20.2524545,7.81118182 L12.8127273,7.81118182 C12.4990459,7.80718539 12.1970432,7.93003116 11.975219,8.15185535 C11.7533948,8.37367955 11.630549,8.67568231 11.6345455,8.98936364 L11.6344509,28.8777273 L15.0962727,28.8777273 C15.7395442,28.8601523 16.2568796,28.3428169 16.2744545,27.6995455 L16.2744545,22.545 L19.8098182,22.545 C24.5241818,22.545 28.3540909,20.0405455 28.3540909,15.1052727 L28.3540909,15.0316364 C28.2804545,10.7590909 25.2605455,7.73918182 20.2540909,7.81281818" id="Path_5" fill="#FFFFFF"></path>
                    <path d="M23.5652727,15.1764545 C23.5652727,13.1138182 22.0925455,12.0092727 19.809,12.0092727 L16.2016364,12.0092727 L16.2016364,18.4917273 L19.8834545,18.4917273 C22.167,18.4180909 23.5652727,17.0918182 23.5652727,15.1772727 L23.5652727,15.1764545 Z" id="Path_6" fill="#88C982"></path>
                    <path d="M179.873182,11.6410909 L176.557091,11.6410909 L169.855364,29.0986364 L162.194727,11.6410909 L158.733,11.6410909 L168.235364,32.5603636 C166.983545,35.5058182 165.804545,36.4647273 163.962818,36.4647273 C162.812035,36.5200173 161.667477,36.2657338 160.648364,35.7283636 L159.617455,38.2328182 C160.996449,38.9712565 162.547935,39.3272054 164.110909,39.2637273 C167.278091,39.2637273 169.265455,37.7165455 171.108818,33.3728182 L179.873182,11.6410909 Z M148.936091,22.0270909 C151.029956,22.0262694 153.113257,22.3238051 155.123182,22.9107273 L155.123182,24.9733636 C155.123182,28.2878182 151.956,30.645 148.125273,30.645 C145.252636,30.645 142.821818,29.0978182 142.821818,26.4460909 C142.748182,23.7207273 144.958091,22.0279091 148.935273,22.0279091 L148.936091,22.0270909 Z M148.788,14.1463636 C152.692364,14.1463636 155.048727,16.0617273 155.048727,19.8916364 L155.048727,20.628 C152.939044,20.0356986 150.757516,19.7383301 148.566273,19.7443636 C143.262818,19.7443636 139.579364,22.1015455 139.579364,26.595 C139.579364,31.0884545 143.483727,33.1510909 147.387273,33.1510909 C150.349398,33.23773 153.172513,31.8948247 154.974273,29.5420909 L154.974273,32.7092727 L157.994182,32.7092727 L157.994182,19.8171818 C157.994182,14.2928182 154.753364,11.3465455 149.081727,11.3465455 C146.436144,11.354817 143.823368,11.9327364 141.421091,13.041 L142.378364,15.6190909 C144.380216,14.6633359 146.568103,14.1605019 148.786364,14.1463636 L148.788,14.1463636 Z M136.705909,13.41 C136.705909,17.1662727 133.612364,19.6707273 128.898,19.6707273 L121.826455,19.6707273 L121.826455,7.22127273 L129.045273,7.22127273 C133.686,7.22127273 136.705909,9.28390909 136.705909,13.4083636 L136.705909,13.41 Z M139.946727,13.2610909 C139.946727,7.58945455 135.747818,4.20054545 129.339818,4.20054545 L118.661727,4.20054545 L118.661727,32.634 L121.902545,32.634 L121.902545,22.6161818 L128.826818,22.6161818 C134.866636,22.6161818 139.949182,19.449 139.949182,13.2610909 L139.946727,13.2610909 Z M115.862727,31.752 L115.862727,26.8150909 C114.946376,27.3421774 113.898939,27.5975807 112.842818,27.5514545 C111.442909,27.5514545 110.853818,26.8887273 110.853818,25.4151818 L110.853818,16.1345455 L115.936364,16.1345455 L115.936364,10.8286364 L110.857091,10.8286364 L110.857091,5.30590909 L104.67,5.30590909 L104.67,10.8286364 L102.091909,10.8286364 L102.091909,16.1320909 L104.67,16.1320909 L104.67,26.4411818 C104.67,31.4500909 107.248091,32.9972727 111.004364,32.9972727 C112.712489,33.0647104 114.40286,32.6294584 115.866,31.7454545 L115.862727,31.752 Z M100.176545,16.9363636 L100.176545,10.4620909 C96.4947273,10.3148182 94.5049091,12.2301818 93.2522727,15.2500909 L93.2522727,10.9047273 L87.0651818,10.9047273 L87.0651818,32.634 L93.2522727,32.634 L93.2522727,24.6051818 C93.2522727,19.4506364 95.7567273,16.9445455 99.8795455,16.9445455 L100.176545,16.9363636 Z M79.4045455,24.9651818 C79.4045455,27.1742727 77.4891818,28.7950909 74.6165455,28.7950909 C72.6275455,28.7950909 71.2284545,27.8378182 71.2284545,26.1433636 L71.2284545,26.0697273 C71.2284545,24.1543636 72.8492727,23.0498182 75.501,23.0498182 C76.8436095,23.0552123 78.1714105,23.3306781 79.4053636,23.8598182 L79.4045455,24.9651818 Z M85.2234545,32.6258182 L85.2234545,20.0380909 C85.2234545,14.1471818 82.278,10.683 75.5001818,10.683 C72.5863545,10.6176797 69.6940212,11.1962581 67.0295455,12.3774545 L68.5767273,17.0918182 C70.4776488,16.340869 72.4992256,15.9416548 74.5429091,15.9136364 C77.6364545,15.9136364 79.1836364,17.3135455 79.1836364,19.8916364 L79.1836364,20.2598182 C77.4751777,19.6738299 75.6814325,19.3749645 73.8752727,19.3753636 C68.7207273,19.3753636 65.1100909,21.5844545 65.1100909,26.2996364 L65.1100909,26.3732727 C65.1100909,30.6458182 68.4981818,33.0005455 72.5498182,33.0005455 C75.0478822,33.1173086 77.4624258,32.0864646 79.1059091,30.2015455 L79.1059091,32.5587273 L85.2234545,32.6258182 Z M59.0710909,14.2928182 C59.0710909,16.7236364 57.2293636,18.5653636 54.1358182,18.5653636 L49.2005455,18.5653636 L49.2005455,9.873 L54.0621818,9.873 C57.1557273,9.873 59.1447273,11.3457273 59.1447273,14.1455455 L59.0710909,14.2928182 Z M65.3318182,14.1455455 L65.3318182,14.0719091 C65.3318182,8.253 61.2065455,4.275 54.4303636,4.275 L42.8661818,4.275 L42.8661818,32.634 L49.1269091,32.634 L49.1269091,24.0897273 L53.8412727,24.0897273 C60.2492727,24.0897273 65.4054545,20.7016364 65.3318182,14.1455455 Z" id="Path_7" fill="#FFFFFF"></path>
                    <rect id="Rectangle_1" fill="#0096AD" x="16.2016364" y="22.6161818" width="4.71436364" height="8.32336364"></rect>
                </g>
            </g>
        </g>
    </g>
</svg>